[gd_scene load_steps=5 format=2]

[ext_resource path="res://tile-blue.png" type="Texture" id=1]
[ext_resource path="res://tile.gd" type="Script" id=2]
[ext_resource path="res://1.png" type="Texture" id=3]
[ext_resource path="res://selector.png" type="Texture" id=4]

[node name="Tile" type="TextureRect" index="0"]

anchor_left = 0.0
anchor_top = 0.0
anchor_right = 0.0
anchor_bottom = 0.0
margin_left = -1.0
margin_right = 127.0
margin_bottom = 128.0
rect_min_size = Vector2( 128, 128 )
rect_pivot_offset = Vector2( 64, 64 )
rect_clip_content = false
mouse_filter = 0
mouse_default_cursor_shape = 0
size_flags_horizontal = 4
size_flags_vertical = 6
texture = ExtResource( 1 )
expand = true
stretch_mode = 6
script = ExtResource( 2 )
_sections_unfolded = [ "Mouse", "Size Flags", "Theme", "Transform", "Visibility" ]

[node name="NorthWest" type="TextureRect" parent="." index="0"]

anchor_left = 0.0
anchor_top = 0.0
anchor_right = 0.0
anchor_bottom = 0.0
margin_left = 33.0
margin_top = 14.0
margin_right = 55.0
margin_bottom = 46.0
rect_pivot_offset = Vector2( 0, 0 )
rect_clip_content = false
mouse_filter = 2
mouse_default_cursor_shape = 0
size_flags_horizontal = 1
size_flags_vertical = 4
texture = ExtResource( 3 )
stretch_mode = 3
_sections_unfolded = [ "Rect" ]
__meta__ = {
"_edit_lock_": true
}

[node name="NorthEast" type="TextureRect" parent="." index="1"]

anchor_left = 0.0
anchor_top = 0.0
anchor_right = 0.0
anchor_bottom = 0.0
margin_left = 75.0
margin_top = 14.0
margin_right = 97.0
margin_bottom = 46.0
rect_pivot_offset = Vector2( 0, 0 )
rect_clip_content = false
mouse_filter = 2
mouse_default_cursor_shape = 0
size_flags_horizontal = 1
size_flags_vertical = 4
texture = ExtResource( 3 )
stretch_mode = 0
_sections_unfolded = [ "Rect" ]
__meta__ = {
"_edit_lock_": true
}

[node name="East" type="TextureRect" parent="." index="2"]

anchor_left = 0.0
anchor_top = 0.0
anchor_right = 0.0
anchor_bottom = 0.0
margin_left = 95.0
margin_top = 48.0
margin_right = 117.0
margin_bottom = 80.0
rect_pivot_offset = Vector2( 0, 0 )
rect_clip_content = false
mouse_filter = 2
mouse_default_cursor_shape = 0
size_flags_horizontal = 1
size_flags_vertical = 4
texture = ExtResource( 3 )
stretch_mode = 0
__meta__ = {
"_edit_lock_": true
}

[node name="SouthEast" type="TextureRect" parent="." index="3"]

anchor_left = 0.0
anchor_top = 0.0
anchor_right = 0.0
anchor_bottom = 0.0
margin_left = 75.0
margin_top = 81.0
margin_right = 97.0
margin_bottom = 113.0
rect_pivot_offset = Vector2( 0, 0 )
rect_clip_content = false
mouse_filter = 2
mouse_default_cursor_shape = 0
size_flags_horizontal = 1
size_flags_vertical = 4
texture = ExtResource( 3 )
stretch_mode = 0
_sections_unfolded = [ "Rect" ]
__meta__ = {
"_edit_lock_": true
}

[node name="SouthWest" type="TextureRect" parent="." index="4"]

anchor_left = 0.0
anchor_top = 0.0
anchor_right = 0.0
anchor_bottom = 0.0
margin_left = 33.0
margin_top = 82.0
margin_right = 55.0
margin_bottom = 114.0
rect_pivot_offset = Vector2( 0, 0 )
rect_clip_content = false
mouse_filter = 2
mouse_default_cursor_shape = 0
size_flags_horizontal = 1
size_flags_vertical = 4
texture = ExtResource( 3 )
stretch_mode = 0
_sections_unfolded = [ "Rect" ]
__meta__ = {
"_edit_lock_": true
}

[node name="West" type="TextureRect" parent="." index="5"]

anchor_left = 0.0
anchor_top = 0.0
anchor_right = 0.0
anchor_bottom = 0.0
margin_left = 13.0
margin_top = 48.0
margin_right = 35.0
margin_bottom = 80.0
rect_pivot_offset = Vector2( 0, 0 )
rect_clip_content = false
mouse_filter = 2
mouse_default_cursor_shape = 0
size_flags_horizontal = 1
size_flags_vertical = 4
texture = ExtResource( 3 )
stretch_mode = 0
__meta__ = {
"_edit_lock_": true
}

[node name="Highlight" type="TextureRect" parent="." index="6"]

visible = false
anchor_left = 0.0
anchor_top = 0.0
anchor_right = 0.0
anchor_bottom = 0.0
margin_left = -7.0
margin_top = -8.0
margin_right = 137.0
margin_bottom = 136.0
rect_pivot_offset = Vector2( 0, 0 )
rect_clip_content = false
mouse_filter = 1
mouse_default_cursor_shape = 0
size_flags_horizontal = 1
size_flags_vertical = 1
texture = ExtResource( 4 )
expand = true
stretch_mode = 4
__meta__ = {
"_edit_lock_": true
}


